<?xml version="1.0" encoding="UTF-8" standalone="no"?>
<svg
   xmlns:dc="http://purl.org/dc/elements/1.1/"
   xmlns:cc="http://creativecommons.org/ns#"
   xmlns:rdf="http://www.w3.org/1999/02/22-rdf-syntax-ns#"
   xmlns:svg="http://www.w3.org/2000/svg"
   xmlns="http://www.w3.org/2000/svg"
   xmlns:sodipodi="http://sodipodi.sourceforge.net/DTD/sodipodi-0.dtd"
   xmlns:inkscape="http://www.inkscape.org/namespaces/inkscape"
   version="1.1"
   id="svg2"
   xml:space="preserve"
   width="711.45947"
   height="201.16927"
   viewBox="0 0 711.45944 201.16926"
   sodipodi:docname="logo.svg"
   inkscape:version="1.0.1 (0767f8302a, 2020-10-17)"><metadata
     id="metadata8"><rdf:RDF><cc:Work
         rdf:about=""><dc:format>image/svg+xml</dc:format><dc:type
           rdf:resource="http://purl.org/dc/dcmitype/StillImage" /><dc:title /></cc:Work></rdf:RDF></metadata><defs
     id="defs6"><clipPath
       clipPathUnits="userSpaceOnUse"
       id="clipPath24"><path
         d="M 0,800 H 800 V 0 H 0 Z"
         id="path22" /></clipPath></defs><sodipodi:namedview
     pagecolor="#ffffff"
     bordercolor="#666666"
     borderopacity="1"
     objecttolerance="10"
     gridtolerance="10"
     guidetolerance="10"
     inkscape:pageopacity="0"
     inkscape:pageshadow="2"
     inkscape:window-width="1366"
     inkscape:window-height="708"
     id="namedview4"
     showgrid="false"
     fit-margin-top="0"
     fit-margin-left="0"
     fit-margin-right="0"
     fit-margin-bottom="0"
     inkscape:zoom="0.51093746"
     inkscape:cx="380.91377"
     inkscape:cy="97.110723"
     inkscape:window-x="0"
     inkscape:window-y="0"
     inkscape:window-maximized="1"
     inkscape:current-layer="g10"
     inkscape:document-rotation="0" /><g
     id="g10"
     inkscape:groupmode="layer"
     inkscape:label="Elementary_logo"
     transform="matrix(1.3333333,0,0,-1.3333333,-177.60372,633.91739)"><g
       id="g204"
       style="fill:#ffffff"><g
         id="g14"
         transform="translate(300.7539,349.3604)"
         style="fill:#ffffff"><path
           d="M 0,0 V 15.852 H 9.529 V 14.983 H 0.936 V 8.482 H 9.084 V 7.592 H 0.936 V 0.868 H 9.529 V 0 Z"
           style="fill:#ffffff;fill-opacity:1;fill-rule:nonzero;stroke:none"
           id="path16" /></g><g
         id="g18"
         style="fill:#ffffff"><g
           id="g20"
           clip-path="url(#clipPath24)"
           style="fill:#ffffff"><g
             id="g26"
             transform="translate(313.8896,350.7187)"
             style="fill:#ffffff"><path
               d="M 0,0 0.423,0.779 C 1.017,0.274 1.6,-0.078 2.171,-0.278 c 0.571,-0.201 1.25,-0.301 2.037,-0.301 0.994,0 1.751,0.174 2.271,0.523 0.519,0.349 0.779,0.857 0.779,1.525 0,0.534 -0.171,0.961 -0.512,1.28 C 6.404,3.068 5.855,3.324 5.099,3.518 L 3.206,3.963 C 2.36,4.155 1.678,4.52 1.158,5.054 0.639,5.588 0.379,6.196 0.379,6.879 c 0,0.95 0.359,1.715 1.08,2.293 0.72,0.579 1.687,0.869 2.905,0.869 0.786,0 1.51,-0.131 2.17,-0.39 C 7.195,9.391 7.726,9.023 8.127,8.549 L 7.682,7.747 C 7.177,8.207 6.657,8.553 6.123,8.782 5.589,9.013 5.002,9.128 4.364,9.128 3.429,9.128 2.705,8.942 2.193,8.571 1.682,8.2 1.425,7.681 1.425,7.013 1.425,6.448 1.588,5.996 1.915,5.654 2.241,5.313 2.746,5.061 3.429,4.897 L 5.344,4.43 C 6.323,4.207 7.058,3.852 7.548,3.361 8.037,2.872 8.282,2.263 8.282,1.536 8.282,0.63 7.907,-0.104 7.158,-0.668 6.408,-1.232 5.402,-1.515 4.142,-1.515 2.39,-1.515 1.01,-1.01 0,0"
               style="fill:#ffffff;fill-opacity:1;fill-rule:nonzero;stroke:none"
               id="path28" /></g><g
             id="g30"
             transform="translate(327.8262,359.6904)"
             style="fill:#ffffff"><path
               d="m 0,0 v -7.102 c 0,-0.95 0.174,-1.599 0.522,-1.948 0.349,-0.348 0.866,-0.523 1.548,-0.523 0.446,0 0.861,0.067 1.247,0.2 v -0.912 c -0.445,-0.119 -0.89,-0.179 -1.336,-0.179 -0.89,0 -1.599,0.249 -2.126,0.746 -0.527,0.497 -0.791,1.266 -0.791,2.305 V 0 h -2.226 v 0.802 h 2.226 V 3.829 L 0,4.23 V 0.802 H 3.384 V 0 Z"
               style="fill:#ffffff;fill-opacity:1;fill-rule:nonzero;stroke:none"
               id="path32" /></g><g
             id="g34"
             transform="translate(340.0713,360.6924)"
             style="fill:#ffffff"><path
               d="m 0,0 -0.067,-0.846 c -0.178,0.03 -0.475,0.044 -0.891,0.044 -0.816,0 -1.484,-0.188 -2.004,-0.567 -0.519,-0.378 -0.897,-0.861 -1.135,-1.447 -0.238,-0.586 -0.356,-1.199 -0.356,-1.837 v -6.679 h -0.913 v 8.06 c 0,1.157 -0.06,2.181 -0.178,3.072 h 0.891 l 0.155,-2.093 c 0.297,0.772 0.761,1.358 1.392,1.759 0.63,0.4 1.354,0.601 2.17,0.601 C -0.521,0.067 -0.209,0.045 0,0"
               style="fill:#ffffff;fill-opacity:1;fill-rule:nonzero;stroke:none"
               id="path36" /></g><g
             id="g38"
             transform="translate(350.1113,351.3975)"
             style="fill:#ffffff"><path
               d="m 0,0 c 0.683,0.854 1.023,2.052 1.023,3.596 0,1.558 -0.34,2.757 -1.023,3.595 -0.684,0.838 -1.647,1.258 -2.895,1.258 -1.247,0 -2.218,-0.43 -2.917,-1.291 -0.697,-0.861 -1.045,-2.063 -1.045,-3.607 0,-1.529 0.352,-2.716 1.057,-3.562 0.705,-0.846 1.681,-1.269 2.928,-1.269 1.231,0 2.188,0.426 2.872,1.28 M 1.959,9.095 V -2.037 H 1.023 v 2.226 c -0.326,-0.772 -0.827,-1.362 -1.502,-1.77 -0.675,-0.408 -1.48,-0.612 -2.416,-0.612 -0.994,0 -1.866,0.234 -2.616,0.702 -0.749,0.467 -1.328,1.135 -1.736,2.003 -0.408,0.868 -0.612,1.882 -0.612,3.039 0,1.158 0.208,2.175 0.623,3.051 0.416,0.875 0.998,1.554 1.748,2.037 0.749,0.481 1.614,0.723 2.593,0.723 0.936,0 1.741,-0.201 2.416,-0.601 C 0.196,8.36 0.697,7.773 1.023,7.002 v 2.093 z"
               style="fill:#ffffff;fill-opacity:1;fill-rule:nonzero;stroke:none"
               id="path40" /></g><g
             id="g42"
             transform="translate(358.416,359.6904)"
             style="fill:#ffffff"><path
               d="m 0,0 v -7.102 c 0,-0.95 0.174,-1.599 0.522,-1.948 0.349,-0.348 0.866,-0.523 1.548,-0.523 0.446,0 0.861,0.067 1.247,0.2 v -0.912 c -0.445,-0.119 -0.89,-0.179 -1.336,-0.179 -0.89,0 -1.599,0.249 -2.126,0.746 -0.527,0.497 -0.791,1.266 -0.791,2.305 V 0 h -2.226 v 0.802 h 2.226 V 3.829 L 0,4.23 V 0.802 H 3.384 V 0 Z"
               style="fill:#ffffff;fill-opacity:1;fill-rule:nonzero;stroke:none"
               id="path44" /></g><g
             id="g46"
             transform="translate(366.9746,358.9004)"
             style="fill:#ffffff"><path
               d="M 0,0 C -0.705,-0.676 -1.146,-1.614 -1.324,-2.816 H 6.334 C 6.245,-1.585 5.89,-0.639 5.266,0.022 4.643,0.683 3.789,1.013 2.705,1.013 1.606,1.013 0.705,0.675 0,0 M -1.391,-3.729 V -3.93 c 0,-1.558 0.368,-2.757 1.102,-3.595 0.734,-0.839 1.784,-1.258 3.15,-1.258 0.698,0 1.351,0.115 1.959,0.345 0.609,0.23 1.21,0.597 1.804,1.102 L 7.069,-8.138 C 6.594,-8.612 5.981,-8.991 5.232,-9.272 4.482,-9.555 3.707,-9.696 2.906,-9.696 c -1.647,0 -2.95,0.512 -3.907,1.536 -0.958,1.024 -1.437,2.434 -1.437,4.23 0,1.143 0.215,2.153 0.646,3.029 0.431,0.875 1.035,1.554 1.814,2.037 0.78,0.481 1.674,0.723 2.683,0.723 1.425,0 2.542,-0.467 3.351,-1.403 0.809,-0.935 1.214,-2.241 1.214,-3.918 v -0.267 z"
               style="fill:#ffffff;fill-opacity:1;fill-rule:nonzero;stroke:none"
               id="path48" /></g><g
             id="g50"
             transform="translate(385.543,351.8652)"
             style="fill:#ffffff"><path
               d="M 0,0 C 0.704,0.823 1.058,1.948 1.058,3.373 1.058,4.812 0.704,5.94 0,6.757 -0.705,7.573 -1.674,7.981 -2.905,7.981 -4.152,7.981 -5.132,7.573 -5.845,6.757 -6.557,5.94 -6.913,4.812 -6.913,3.373 c 0,-1.44 0.356,-2.568 1.068,-3.385 0.713,-0.816 1.693,-1.224 2.94,-1.224 1.231,0 2.2,0.412 2.905,1.236 M 1.992,8.627 V -2.661 c 0,-1.588 -0.375,-2.786 -1.124,-3.595 -0.75,-0.809 -1.859,-1.214 -3.328,-1.214 -1.663,0 -3.088,0.416 -4.275,1.247 l 0.201,0.891 c 0.741,-0.445 1.409,-0.761 2.003,-0.946 0.593,-0.186 1.299,-0.279 2.115,-0.279 1.143,0 2.011,0.323 2.605,0.968 0.593,0.647 0.89,1.585 0.89,2.817 v 3.05 c -0.326,-0.801 -0.831,-1.41 -1.514,-1.826 -0.682,-0.415 -1.506,-0.623 -2.47,-0.623 -0.98,0 -1.849,0.234 -2.606,0.701 -0.757,0.468 -1.346,1.12 -1.769,1.959 -0.423,0.839 -0.635,1.8 -0.635,2.884 0,1.083 0.212,2.044 0.635,2.883 0.423,0.838 1.012,1.488 1.769,1.948 0.757,0.46 1.626,0.691 2.606,0.691 0.949,0 1.761,-0.202 2.437,-0.602 0.675,-0.4 1.184,-0.987 1.526,-1.759 v 2.093 z"
               style="fill:#ffffff;fill-opacity:1;fill-rule:nonzero;stroke:none"
               id="path52" /></g><path
             d="m 392.499,360.492 h 0.913 V 349.36 h -0.913 z m -0.245,4.453 h 1.447 v -1.426 h -1.447 z"
             style="fill:#ffffff;fill-opacity:1;fill-rule:nonzero;stroke:none"
             id="path54" /><g
             id="g56"
             transform="translate(405.502,351.3975)"
             style="fill:#ffffff"><path
               d="m 0,0 c 0.683,0.854 1.023,2.052 1.023,3.596 0,1.558 -0.34,2.757 -1.023,3.595 -0.684,0.838 -1.647,1.258 -2.895,1.258 -1.247,0 -2.218,-0.43 -2.917,-1.291 -0.697,-0.861 -1.045,-2.063 -1.045,-3.607 0,-1.529 0.352,-2.716 1.057,-3.562 0.705,-0.846 1.681,-1.269 2.928,-1.269 1.231,0 2.188,0.426 2.872,1.28 M 1.959,9.095 V -2.037 H 1.023 v 2.226 c -0.326,-0.772 -0.827,-1.362 -1.502,-1.77 -0.675,-0.408 -1.48,-0.612 -2.416,-0.612 -0.994,0 -1.866,0.234 -2.616,0.702 -0.749,0.467 -1.328,1.135 -1.736,2.003 -0.408,0.868 -0.612,1.882 -0.612,3.039 0,1.158 0.208,2.175 0.623,3.051 0.416,0.875 0.998,1.554 1.748,2.037 0.749,0.481 1.614,0.723 2.593,0.723 0.936,0 1.741,-0.201 2.416,-0.601 C 0.196,8.36 0.697,7.773 1.023,7.002 v 2.093 z"
               style="fill:#ffffff;fill-opacity:1;fill-rule:nonzero;stroke:none"
               id="path58" /></g><g
             id="g60"
             transform="translate(411.7568,350.7187)"
             style="fill:#ffffff"><path
               d="M 0,0 0.423,0.779 C 1.017,0.274 1.6,-0.078 2.171,-0.278 c 0.571,-0.201 1.25,-0.301 2.037,-0.301 0.994,0 1.751,0.174 2.271,0.523 0.519,0.349 0.779,0.857 0.779,1.525 0,0.534 -0.171,0.961 -0.512,1.28 C 6.404,3.068 5.855,3.324 5.099,3.518 L 3.206,3.963 C 2.36,4.155 1.678,4.52 1.158,5.054 0.639,5.588 0.379,6.196 0.379,6.879 c 0,0.95 0.359,1.715 1.08,2.293 0.72,0.579 1.687,0.869 2.905,0.869 0.786,0 1.51,-0.131 2.17,-0.39 C 7.195,9.391 7.726,9.023 8.127,8.549 L 7.682,7.747 C 7.177,8.207 6.657,8.553 6.123,8.782 5.589,9.013 5.002,9.128 4.364,9.128 3.429,9.128 2.705,8.942 2.193,8.571 1.682,8.2 1.425,7.681 1.425,7.013 1.425,6.448 1.588,5.996 1.915,5.654 2.241,5.313 2.746,5.061 3.429,4.897 L 5.344,4.43 C 6.323,4.207 7.058,3.852 7.548,3.361 8.037,2.872 8.282,2.263 8.282,1.536 8.282,0.63 7.907,-0.104 7.158,-0.668 6.408,-1.232 5.402,-1.515 4.142,-1.515 2.39,-1.515 1.01,-1.01 0,0"
               style="fill:#ffffff;fill-opacity:1;fill-rule:nonzero;stroke:none"
               id="path62" /></g><g
             id="g64"
             transform="translate(438.1387,351.3975)"
             style="fill:#ffffff"><path
               d="M 0,0 C 0.683,0.854 1.023,2.052 1.023,3.596 1.023,5.139 0.683,6.334 0,7.18 -0.684,8.026 -1.641,8.449 -2.872,8.449 -4.119,8.449 -5.095,8.029 -5.8,7.191 -6.505,6.353 -6.857,5.169 -6.857,3.64 c 0,-1.543 0.352,-2.749 1.057,-3.618 0.705,-0.868 1.673,-1.302 2.905,-1.302 1.248,0 2.211,0.426 2.895,1.28 M 1.959,14.349 V -2.037 H 1.023 v 2.226 c -0.326,-0.772 -0.827,-1.362 -1.502,-1.77 -0.675,-0.408 -1.48,-0.612 -2.416,-0.612 -0.979,0 -1.844,0.241 -2.593,0.723 -0.75,0.483 -1.332,1.165 -1.748,2.049 -0.415,0.883 -0.623,1.903 -0.623,3.061 0,1.143 0.204,2.148 0.612,3.017 0.408,0.868 0.987,1.536 1.736,2.003 0.75,0.468 1.622,0.702 2.616,0.702 0.936,0 1.741,-0.201 2.416,-0.601 C 0.196,8.36 0.697,7.773 1.023,7.002 v 7.347 z"
               style="fill:#ffffff;fill-opacity:1;fill-rule:nonzero;stroke:none"
               id="path66" /></g><path
             d="m 445.062,360.492 h 0.913 V 349.36 h -0.913 z m -0.245,4.453 h 1.447 v -1.426 h -1.447 z"
             style="fill:#ffffff;fill-opacity:1;fill-rule:nonzero;stroke:none"
             id="path68" /><g
             id="g70"
             transform="translate(458.1201,351.8652)"
             style="fill:#ffffff"><path
               d="M 0,0 C 0.704,0.823 1.058,1.948 1.058,3.373 1.058,4.812 0.704,5.94 0,6.757 -0.705,7.573 -1.674,7.981 -2.905,7.981 -4.152,7.981 -5.132,7.573 -5.845,6.757 -6.557,5.94 -6.913,4.812 -6.913,3.373 c 0,-1.44 0.356,-2.568 1.068,-3.385 0.713,-0.816 1.693,-1.224 2.94,-1.224 1.231,0 2.2,0.412 2.905,1.236 M 1.992,8.627 V -2.661 c 0,-1.588 -0.375,-2.786 -1.124,-3.595 -0.75,-0.809 -1.859,-1.214 -3.328,-1.214 -1.663,0 -3.088,0.416 -4.275,1.247 l 0.201,0.891 c 0.741,-0.445 1.409,-0.761 2.003,-0.946 0.593,-0.186 1.299,-0.279 2.115,-0.279 1.143,0 2.011,0.323 2.605,0.968 0.593,0.647 0.89,1.585 0.89,2.817 v 3.05 c -0.326,-0.801 -0.831,-1.41 -1.514,-1.826 -0.682,-0.415 -1.506,-0.623 -2.47,-0.623 -0.98,0 -1.849,0.234 -2.606,0.701 -0.757,0.468 -1.346,1.12 -1.769,1.959 -0.423,0.839 -0.635,1.8 -0.635,2.884 0,1.083 0.212,2.044 0.635,2.883 0.423,0.838 1.012,1.488 1.769,1.948 0.757,0.46 1.626,0.691 2.606,0.691 0.949,0 1.761,-0.202 2.437,-0.602 0.675,-0.4 1.184,-0.987 1.526,-1.759 v 2.093 z"
               style="fill:#ffffff;fill-opacity:1;fill-rule:nonzero;stroke:none"
               id="path72" /></g><path
             d="m 465.077,360.492 h 0.913 V 349.36 h -0.913 z m -0.245,4.453 h 1.447 v -1.426 h -1.447 z"
             style="fill:#ffffff;fill-opacity:1;fill-rule:nonzero;stroke:none"
             id="path74" /><g
             id="g76"
             transform="translate(472.3574,359.6904)"
             style="fill:#ffffff"><path
               d="m 0,0 v -7.102 c 0,-0.95 0.174,-1.599 0.522,-1.948 0.349,-0.348 0.866,-0.523 1.548,-0.523 0.446,0 0.861,0.067 1.247,0.2 v -0.912 c -0.445,-0.119 -0.89,-0.179 -1.336,-0.179 -0.89,0 -1.599,0.249 -2.126,0.746 -0.527,0.497 -0.791,1.266 -0.791,2.305 V 0 h -2.226 v 0.802 h 2.226 V 3.829 L 0,4.23 V 0.802 H 3.384 V 0 Z"
               style="fill:#ffffff;fill-opacity:1;fill-rule:nonzero;stroke:none"
               id="path78" /></g><g
             id="g80"
             transform="translate(486.3389,351.3975)"
             style="fill:#ffffff"><path
               d="m 0,0 c 0.683,0.854 1.023,2.052 1.023,3.596 0,1.558 -0.34,2.757 -1.023,3.595 -0.684,0.838 -1.647,1.258 -2.895,1.258 -1.247,0 -2.218,-0.43 -2.917,-1.291 -0.697,-0.861 -1.045,-2.063 -1.045,-3.607 0,-1.529 0.352,-2.716 1.057,-3.562 0.705,-0.846 1.681,-1.269 2.928,-1.269 1.231,0 2.188,0.426 2.872,1.28 M 1.959,9.095 V -2.037 H 1.023 v 2.226 c -0.326,-0.772 -0.827,-1.362 -1.502,-1.77 -0.675,-0.408 -1.48,-0.612 -2.416,-0.612 -0.994,0 -1.866,0.234 -2.616,0.702 -0.749,0.467 -1.328,1.135 -1.736,2.003 -0.408,0.868 -0.612,1.882 -0.612,3.039 0,1.158 0.208,2.175 0.623,3.051 0.416,0.875 0.998,1.554 1.748,2.037 0.749,0.481 1.614,0.723 2.593,0.723 0.936,0 1.741,-0.201 2.416,-0.601 C 0.196,8.36 0.697,7.773 1.023,7.002 v 2.093 z"
               style="fill:#ffffff;fill-opacity:1;fill-rule:nonzero;stroke:none"
               id="path82" /></g><path
             d="m 493.262,365.746 h 0.913 V 349.36 h -0.913 z"
             style="fill:#ffffff;fill-opacity:1;fill-rule:nonzero;stroke:none"
             id="path84" /><g
             id="g86"
             transform="translate(500.8428,358.9004)"
             style="fill:#ffffff"><path
               d="M 0,0 C -0.705,-0.676 -1.146,-1.614 -1.324,-2.816 H 6.334 C 6.245,-1.585 5.89,-0.639 5.266,0.022 4.643,0.683 3.789,1.013 2.705,1.013 1.606,1.013 0.705,0.675 0,0 M -1.391,-3.729 V -3.93 c 0,-1.558 0.368,-2.757 1.102,-3.595 0.734,-0.839 1.784,-1.258 3.15,-1.258 0.698,0 1.351,0.115 1.959,0.345 0.609,0.23 1.21,0.597 1.804,1.102 L 7.069,-8.138 C 6.594,-8.612 5.981,-8.991 5.232,-9.272 4.482,-9.555 3.707,-9.696 2.906,-9.696 c -1.647,0 -2.95,0.512 -3.907,1.536 -0.958,1.024 -1.437,2.434 -1.437,4.23 0,1.143 0.215,2.153 0.646,3.029 0.431,0.875 1.035,1.554 1.814,2.037 0.78,0.481 1.674,0.723 2.683,0.723 1.425,0 2.542,-0.467 3.351,-1.403 0.809,-0.935 1.214,-2.241 1.214,-3.918 v -0.267 z"
               style="fill:#ffffff;fill-opacity:1;fill-rule:nonzero;stroke:none"
               id="path88" /></g><g
             id="g90"
             transform="translate(511.584,350.7187)"
             style="fill:#ffffff"><path
               d="M 0,0 0.423,0.779 C 1.017,0.274 1.6,-0.078 2.171,-0.278 c 0.571,-0.201 1.25,-0.301 2.037,-0.301 0.994,0 1.751,0.174 2.271,0.523 0.519,0.349 0.779,0.857 0.779,1.525 0,0.534 -0.171,0.961 -0.512,1.28 C 6.404,3.068 5.855,3.324 5.099,3.518 L 3.206,3.963 C 2.36,4.155 1.678,4.52 1.158,5.054 0.639,5.588 0.379,6.196 0.379,6.879 c 0,0.95 0.359,1.715 1.08,2.293 0.72,0.579 1.687,0.869 2.905,0.869 0.786,0 1.51,-0.131 2.17,-0.39 C 7.195,9.391 7.726,9.023 8.127,8.549 L 7.682,7.747 C 7.177,8.207 6.657,8.553 6.123,8.782 5.589,9.013 5.002,9.128 4.364,9.128 3.429,9.128 2.705,8.942 2.193,8.571 1.682,8.2 1.425,7.681 1.425,7.013 1.425,6.448 1.588,5.996 1.915,5.654 2.241,5.313 2.746,5.061 3.429,4.897 L 5.344,4.43 C 6.323,4.207 7.058,3.852 7.548,3.361 8.037,2.872 8.282,2.263 8.282,1.536 8.282,0.63 7.907,-0.104 7.158,-0.668 6.408,-1.232 5.402,-1.515 4.142,-1.515 2.39,-1.515 1.01,-1.01 0,0"
               style="fill:#ffffff;fill-opacity:1;fill-rule:nonzero;stroke:none"
               id="path92" /></g><g
             id="g94"
             transform="translate(298.5937,421.084)"
             style="fill:#ffffff"><path
               d="M 0,0 C 0,0.879 0.324,1.632 0.972,2.258 1.62,2.884 2.394,3.196 3.295,3.196 L 31.531,3.164 h 0.032 c 0.901,0 1.676,-0.325 2.324,-0.973 0.647,-0.647 0.971,-1.422 0.971,-2.323 0,-0.9 -0.324,-1.675 -0.971,-2.322 -0.648,-0.649 -1.423,-0.972 -2.324,-0.972 H 31.531 L 6.59,-3.394 6.623,-16.901 28.829,-17.066 c 0.944,0 1.731,-0.33 2.357,-0.989 0.625,-0.659 0.938,-1.505 0.938,-2.537 0,-0.879 -0.341,-1.62 -1.021,-2.224 -0.681,-0.605 -1.439,-0.907 -2.274,-0.907 h -0.033 l -22.141,0.165 0.033,-13.936 24.843,0.033 h 0.032 c 0.901,0 1.676,-0.324 2.324,-0.972 0.647,-0.648 0.971,-1.422 0.971,-2.323 0,-0.901 -0.324,-1.675 -0.971,-2.323 -0.648,-0.648 -1.423,-0.972 -2.324,-0.972 H 31.531 L 3.394,-44.084 c -0.902,0 -1.675,0.324 -2.324,0.972 -0.648,0.647 -0.971,1.412 -0.971,2.29 z"
               style="fill:#ffffff;fill-opacity:1;fill-rule:nonzero;stroke:none"
               id="path96" /></g><g
             id="g98"
             transform="translate(344.5312,425.1367)"
             style="fill:#ffffff"><path
               d="M 0,0 C 1.055,0 1.9,-0.346 2.537,-1.038 3.174,-1.729 3.481,-2.482 3.46,-3.294 v -42.437 c 0,-0.879 -0.346,-1.587 -1.037,-2.125 -0.693,-0.539 -1.379,-0.808 -2.06,-0.808 -0.945,0 -1.763,0.308 -2.455,0.923 -0.692,0.615 -1.038,1.405 -1.038,2.372 v 42.075 c 0,0.834 0.302,1.592 0.906,2.273 C -1.62,-0.34 -0.878,0 0,0"
               style="fill:#ffffff;fill-opacity:1;fill-rule:nonzero;stroke:none"
               id="path100" /></g><g
             id="g102"
             transform="translate(382.8262,398.6797)"
             style="fill:#ffffff"><path
               d="m 0,0 c -0.418,2.152 -1.495,3.987 -3.229,5.503 -1.736,1.516 -3.779,2.273 -6.129,2.273 -2.394,0 -4.509,-0.78 -6.342,-2.339 -1.835,-1.56 -3.071,-3.383 -3.707,-5.47 z m -9.358,14.365 c 2.921,0 5.601,-0.724 8.04,-2.174 2.437,-1.45 4.398,-3.399 5.88,-5.848 1.484,-2.449 2.225,-5.168 2.225,-8.155 0,-0.615 -0.033,-1.241 -0.1,-1.877 C 6.6,-4.503 6.231,-5.189 5.584,-5.749 4.936,-6.31 4.205,-6.59 3.393,-6.59 l -23.031,-0.032 c 0.373,-1.582 1.076,-3.065 2.109,-4.448 1.033,-1.384 2.29,-2.504 3.772,-3.361 1.484,-0.856 3.103,-1.285 4.861,-1.285 1.888,0 3.58,0.461 5.073,1.384 1.494,0.923 2.658,1.987 3.493,3.196 0.264,0.417 0.664,0.769 1.202,1.054 0.539,0.285 1.049,0.429 1.532,0.429 0.901,0 1.675,-0.33 2.324,-0.989 0.647,-0.659 0.971,-1.439 0.971,-2.339 0,-0.704 -0.198,-1.33 -0.593,-1.878 -1.362,-1.999 -3.234,-3.729 -5.618,-5.19 -2.384,-1.461 -5.145,-2.19 -8.286,-2.19 -2.526,0 -4.871,0.494 -7.034,1.482 -2.164,0.988 -4.048,2.339 -5.65,4.053 -1.605,1.713 -2.851,3.684 -3.741,5.914 -0.889,2.228 -1.334,4.585 -1.334,7.067 0,2.394 0.439,4.673 1.318,6.836 0.879,2.164 2.103,4.091 3.675,5.783 1.569,1.691 3.398,3.026 5.485,4.003 2.086,0.977 4.327,1.466 6.721,1.466"
               style="fill:#ffffff;fill-opacity:1;fill-rule:nonzero;stroke:none"
               id="path104" /></g><g
             id="g106"
             transform="translate(411.7295,413.1768)"
             style="fill:#ffffff"><path
               d="m 0,0 c 2.131,0 4.003,-0.517 5.617,-1.549 1.614,-1.032 2.938,-2.284 3.971,-3.756 1.23,1.428 2.712,2.674 4.448,3.741 1.735,1.064 3.668,1.597 5.799,1.597 2.811,0 5.144,-0.753 7.002,-2.257 1.855,-1.505 3.233,-3.476 4.134,-5.914 0.9,-2.438 1.35,-5.074 1.35,-7.908 l 0.033,-17.561 c 0,-0.878 -0.318,-1.636 -0.955,-2.273 -0.636,-0.637 -1.417,-0.956 -2.339,-0.956 -0.922,0 -1.703,0.319 -2.339,0.956 -0.637,0.637 -0.955,1.395 -0.955,2.273 l -0.034,17.496 c 0,1.669 -0.154,3.234 -0.461,4.695 -0.307,1.46 -0.868,2.641 -1.68,3.542 -0.814,0.9 -1.988,1.351 -3.526,1.351 -1.626,0 -3.014,-0.451 -4.168,-1.351 -1.153,-0.901 -2.032,-2.082 -2.635,-3.542 -0.605,-1.461 -0.907,-3.037 -0.907,-4.729 l 0.034,-17.56 c 0,-0.88 -0.326,-1.631 -0.973,-2.258 -0.647,-0.626 -1.422,-0.938 -2.322,-0.938 -0.923,0 -1.703,0.318 -2.34,0.955 -0.637,0.636 -0.955,1.394 -0.955,2.273 v 17.495 c 0,2.065 -0.346,3.811 -1.037,5.24 -0.693,1.427 -1.582,2.508 -2.67,3.245 -1.087,0.736 -2.202,1.104 -3.344,1.104 -1.626,0 -3.086,-0.759 -4.382,-2.274 -1.296,-1.516 -1.944,-3.877 -1.944,-7.083 v -17.759 c 0,-0.88 -0.324,-1.631 -0.972,-2.258 -0.648,-0.626 -1.423,-0.938 -2.323,-0.938 -0.9,0 -1.675,0.318 -2.322,0.955 -0.649,0.636 -0.973,1.394 -0.973,2.273 v 30.478 c 0,0.9 0.17,1.663 0.511,2.289 0.341,0.626 0.972,0.939 1.895,0.939 0.725,0 1.395,-0.23 2.009,-0.691 0.615,-0.462 1.109,-1.231 1.483,-2.307 l 0.625,-1.812 c 0.704,1.45 1.786,2.608 3.247,3.475 C -2.938,-0.434 -1.472,0 0,0"
               style="fill:#ffffff;fill-opacity:1;fill-rule:nonzero;stroke:none"
               id="path108" /></g><g
             id="g110"
             transform="translate(478.9189,398.6797)"
             style="fill:#ffffff"><path
               d="m 0,0 c -0.418,2.152 -1.494,3.987 -3.229,5.503 -1.736,1.516 -3.778,2.273 -6.128,2.273 -2.395,0 -4.509,-0.78 -6.343,-2.339 -1.834,-1.56 -3.07,-3.383 -3.706,-5.47 z m -9.357,14.365 c 2.92,0 5.601,-0.724 8.039,-2.174 C 1.12,10.741 3.08,8.792 4.562,6.343 6.046,3.894 6.788,1.175 6.788,-1.812 6.788,-2.427 6.755,-3.053 6.688,-3.689 6.6,-4.503 6.232,-5.189 5.585,-5.749 4.937,-6.31 4.207,-6.59 3.394,-6.59 l -23.032,-0.032 c 0.374,-1.582 1.076,-3.065 2.11,-4.448 1.032,-1.384 2.29,-2.504 3.772,-3.361 1.483,-0.856 3.103,-1.285 4.86,-1.285 1.889,0 3.58,0.461 5.074,1.384 1.494,0.923 2.658,1.987 3.492,3.196 0.264,0.417 0.664,0.769 1.203,1.054 0.538,0.285 1.049,0.429 1.533,0.429 0.901,0 1.674,-0.33 2.322,-0.989 0.647,-0.659 0.971,-1.439 0.971,-2.339 0,-0.704 -0.196,-1.33 -0.592,-1.878 -1.363,-1.999 -3.235,-3.729 -5.618,-5.19 -2.384,-1.461 -5.145,-2.19 -8.286,-2.19 -2.526,0 -4.871,0.494 -7.034,1.482 -2.164,0.988 -4.048,2.339 -5.651,4.053 -1.604,1.713 -2.85,3.684 -3.74,5.914 -0.889,2.228 -1.335,4.585 -1.335,7.067 0,2.394 0.44,4.673 1.319,6.836 0.878,2.164 2.102,4.091 3.674,5.783 1.57,1.691 3.399,3.026 5.485,4.003 2.087,0.977 4.327,1.466 6.722,1.466"
               style="fill:#ffffff;fill-opacity:1;fill-rule:nonzero;stroke:none"
               id="path112" /></g><g
             id="g114"
             transform="translate(500.541,407.9385)"
             style="fill:#ffffff"><path
               d="m 0,0 c 1.187,1.164 2.608,2.316 4.267,3.459 1.659,1.142 3.586,1.714 5.782,1.714 2.878,0 5.272,-0.764 7.182,-2.29 1.912,-1.528 3.318,-3.301 4.218,-5.321 0.703,-1.604 1.125,-3.191 1.269,-4.761 0.142,-1.572 0.215,-3.048 0.215,-4.432 V -28.27 c 0,-0.901 -0.326,-1.674 -0.973,-2.322 -0.648,-0.648 -1.422,-0.972 -2.322,-0.972 -0.902,0 -1.676,0.324 -2.324,0.972 -0.648,0.648 -0.972,1.421 -0.972,2.322 v 16.639 c 0,1.296 -0.061,2.493 -0.181,3.591 -0.121,1.099 -0.368,2.064 -0.741,2.899 -0.417,0.967 -1.066,1.829 -1.944,2.587 -0.879,0.758 -1.999,1.137 -3.361,1.137 -3.251,0 -5.749,-1.241 -7.496,-3.724 -1.746,-2.482 -2.608,-5.831 -2.586,-10.048 l 0.032,-13.147 c 0,-0.9 -0.324,-1.675 -0.971,-2.322 -0.648,-0.648 -1.422,-0.973 -2.323,-0.973 -0.922,0 -1.703,0.325 -2.339,0.973 -0.637,0.647 -0.955,1.433 -0.955,2.355 l -0.066,30.28 c 0,0.9 0.247,1.674 0.741,2.323 0.494,0.647 1.191,0.971 2.092,0.971 0.901,0 1.593,-0.324 2.076,-0.971 0.483,-0.649 0.857,-1.423 1.12,-2.323 z"
               style="fill:#ffffff;fill-opacity:1;fill-rule:nonzero;stroke:none"
               id="path116" /></g><g
             id="g118"
             transform="translate(539.123,419.042)"
             style="fill:#ffffff"><path
               d="m 0,0 c 0,0.9 0.318,1.675 0.956,2.322 0.637,0.649 1.416,0.973 2.339,0.973 0.9,0 1.675,-0.324 2.323,-0.973 C 6.266,1.675 6.59,0.9 6.59,0 v -6.557 h 4.415 c 0.856,0 1.592,-0.308 2.208,-0.922 0.614,-0.616 0.922,-1.351 0.922,-2.208 0,-0.857 -0.308,-1.593 -0.922,-2.208 -0.616,-0.615 -1.352,-0.922 -2.208,-0.922 H 6.557 c 0.008,-6.999 0.016,-13.252 0.025,-20.252 v -3.256 -0.844 c 0.001,-0.916 0.004,-1.057 0,-1.402 -0.007,-0.805 -0.011,-1.207 -0.05,-1.396 -0.152,-0.731 -0.502,-1.226 -0.595,-1.352 -0.524,-0.714 -1.181,-1.014 -1.349,-1.086 -0.173,-0.074 -0.727,-0.294 -1.471,-0.256 -0.678,0.035 -1.166,0.267 -1.335,0.354 -0.138,0.072 -0.684,0.364 -1.143,0.984 -0.12,0.161 -0.381,0.519 -0.526,1.047 -0.093,0.342 -0.112,0.662 -0.119,0.794 -0.002,0.038 -0.002,0.043 -0.002,0.643 v 0.648 0.548 0.474 2.178 1.49 c -0.008,6.884 -0.016,13.768 -0.024,20.65 h -4.251 c -0.857,0 -1.593,0.308 -2.207,0.923 -0.616,0.615 -0.923,1.352 -0.923,2.208 0,0.857 0.307,1.592 0.923,2.207 0.614,0.616 1.35,0.923 2.207,0.923 H 0 Z"
               style="fill:#ffffff;fill-opacity:1;fill-rule:nonzero;stroke:none"
               id="path120" /></g><g
             id="g122"
             transform="translate(590.0781,394.792)"
             style="fill:#ffffff"><path
               d="m 0,0 c 0,2.152 -0.5,4.129 -1.499,5.931 -1,1.8 -2.356,3.251 -4.069,4.349 -1.713,1.098 -3.669,1.648 -5.865,1.648 -2.153,0 -4.097,-0.55 -5.832,-1.648 -1.736,-1.098 -3.108,-2.553 -4.119,-4.366 -1.01,-1.812 -1.515,-3.772 -1.515,-5.881 0,-2.131 0.516,-4.102 1.548,-5.914 1.033,-1.812 2.422,-3.267 4.168,-4.365 1.746,-1.1 3.674,-1.648 5.783,-1.648 2.109,0 4.024,0.548 5.75,1.648 1.723,1.098 3.096,2.553 4.118,4.365 C -0.511,-4.069 0,-2.108 0,0 m -11.367,18.517 c 1.625,0 3.213,-0.325 4.761,-0.972 1.548,-0.649 2.932,-1.461 4.151,-2.439 1.22,-0.977 2.125,-1.982 2.719,-3.014 l 0.362,3.163 c 0,0.9 0.264,1.675 0.791,2.323 0.526,0.648 1.24,0.972 2.141,0.972 0.9,0 1.675,-0.324 2.323,-0.972 0.647,-0.648 0.972,-1.423 0.972,-2.323 V 15.189 L 6.787,-15.32 c 0,-0.902 -0.324,-1.676 -0.972,-2.324 -0.648,-0.647 -1.422,-0.971 -2.323,-0.971 -0.901,0 -1.614,0.324 -2.141,0.971 -0.528,0.648 -0.791,1.422 -0.791,2.324 l -0.363,2.634 c -1.141,-1.955 -2.811,-3.409 -5.008,-4.365 -2.196,-0.955 -4.404,-1.433 -6.622,-1.433 -2.483,0 -4.81,0.489 -6.985,1.466 -2.175,0.978 -4.086,2.324 -5.733,4.037 -1.648,1.712 -2.938,3.678 -3.871,5.897 -0.934,2.219 -1.401,4.558 -1.401,7.019 0,2.437 0.455,4.771 1.367,7.001 0.911,2.229 2.186,4.217 3.823,5.963 1.635,1.747 3.546,3.119 5.732,4.119 2.187,0.999 4.563,1.499 7.134,1.499"
               style="fill:#ffffff;fill-opacity:1;fill-rule:nonzero;stroke:none"
               id="path124" /></g><g
             id="g126"
             transform="translate(628.5371,408.9922)"
             style="fill:#ffffff"><path
               d="m 0,0 c 0,-1.757 -0.847,-2.734 -2.537,-2.932 -0.616,-0.066 -1.396,0.137 -2.34,0.61 -0.944,0.471 -1.9,0.708 -2.866,0.708 -1.911,0 -3.427,-0.489 -4.547,-1.466 -1.12,-0.978 -1.923,-2.29 -2.405,-3.938 -0.484,-1.647 -0.725,-3.492 -0.725,-5.535 v -17.001 c 0,-0.967 -0.292,-1.735 -0.873,-2.306 -0.583,-0.572 -1.39,-0.857 -2.423,-0.857 -1.01,0 -1.811,0.285 -2.404,0.857 -0.594,0.571 -0.89,1.351 -0.89,2.339 V 0.824 c 0,0.988 0.247,1.801 0.741,2.438 0.495,0.637 1.17,0.956 2.027,0.956 0.505,0 1.093,-0.214 1.763,-0.643 0.669,-0.429 1.136,-1.159 1.4,-2.191 l 0.329,-2.372 c 0.285,0.615 0.835,1.329 1.647,2.141 0.813,0.813 1.78,1.522 2.901,2.125 1.119,0.605 2.283,0.907 3.492,0.907 2.239,0 4.085,-0.258 5.535,-0.774 C -0.726,2.895 0,1.758 0,0"
               style="fill:#ffffff;fill-opacity:1;fill-rule:nonzero;stroke:none"
               id="path128" /></g><g
             id="g130"
             transform="translate(636.6504,413.3418)"
             style="fill:#ffffff"><path
               d="m 0,0 c 0.637,0 1.235,-0.187 1.796,-0.561 0.559,-0.373 0.96,-0.835 1.202,-1.383 L 14.2,-27.412 23.788,-2.175 c 0.242,0.593 0.643,1.087 1.203,1.483 0.56,0.395 1.181,0.593 1.862,0.593 0.9,0 1.674,-0.324 2.323,-0.971 0.647,-0.649 0.971,-1.423 0.971,-2.324 0,-0.46 -0.087,-0.889 -0.263,-1.285 l -12.125,-31.63 c -0.187,-0.45 -0.374,-0.9 -0.561,-1.35 l -1.844,-4.613 c -0.57,-1.596 -1.055,-2.893 -1.399,-3.793 -0.074,-0.197 -0.05,-0.13 -1.22,-3.151 -0.007,-0.021 -0.589,-1.522 -0.591,-1.53 -0.258,-0.664 -0.29,-0.747 -0.292,-0.753 -0.199,-0.513 -0.211,-0.549 -0.271,-0.698 -0.218,-0.547 -0.326,-0.821 -0.422,-0.978 -0.047,-0.078 -0.283,-0.457 -0.724,-0.781 -0.7,-0.514 -1.448,-0.547 -1.791,-0.559 -0.623,-0.022 -1.086,0.131 -1.213,0.175 -0.093,0.033 -0.506,0.182 -0.955,0.532 -0.656,0.512 -0.959,1.117 -1.059,1.335 -0.111,0.244 -0.304,0.676 -0.307,1.258 -0.001,0.134 0.008,0.375 0.161,0.937 0.194,0.722 0.362,0.998 0.843,2.213 0,0 -10e-4,-0.003 0.404,1.043 0.004,0.01 0.46,1.185 0.463,1.196 0.515,1.33 0.845,2.181 0.851,2.197 0.315,0.816 0.78,2.05 1.426,3.86 l 1.582,4.021 -13.839,31.036 c -0.197,0.462 -0.296,0.934 -0.296,1.417 0,0.9 0.323,1.675 0.972,2.323 C -1.676,-0.324 -0.901,0 0,0"
               style="fill:#ffffff;fill-opacity:1;fill-rule:nonzero;stroke:none"
               id="path132" /></g><g
             id="g134"
             transform="translate(147.2266,461.4141)"
             style="fill:#ffffff"><path
               d="m 0,0 c -7.432,-7.433 5.696,-42.152 43.186,-79.643 37.488,-37.488 72.21,-50.622 79.643,-43.184 7.432,7.431 -5.696,42.151 -43.185,79.641 C 42.156,-5.698 7.438,7.432 0,-0.001 Z m 116.258,-136.853 c -6.61,0 -15.365,2.06 -26.947,7.736 -17.224,8.439 -36.618,22.997 -54.611,40.99 -17.992,17.992 -32.549,37.386 -40.989,54.609 -12.014,24.517 -7.825,36.373 -2.195,42.002 v 10e-4 c 5.629,5.628 17.485,9.819 42.003,-2.196 17.223,-8.439 36.617,-22.997 54.61,-40.99 17.992,-17.992 32.549,-37.386 40.989,-54.61 12.014,-24.516 7.825,-36.373 2.195,-42.001 -2.969,-2.971 -7.673,-5.541 -15.055,-5.541"
               style="fill:#ffffff;fill-opacity:1;fill-rule:nonzero;stroke:none"
               id="path136" /></g><g
             id="g138"
             transform="translate(147.2266,338.5869)"
             style="fill:#ffffff"><path
               d="m 0,0 c 7.441,-7.441 42.157,5.697 79.643,43.185 37.49,37.49 50.618,72.21 43.186,79.642 C 115.391,130.26 80.674,117.13 43.187,79.642 5.696,42.151 -7.432,7.432 0,-0.001 Z m 6.571,-14.025 c -7.383,0 -12.085,2.569 -15.055,5.539 v 0.001 c -5.63,5.629 -9.819,17.485 2.195,42.002 8.44,17.223 22.997,36.617 40.99,54.609 17.992,17.993 37.386,32.551 54.61,40.99 24.515,12.014 36.373,7.824 42.002,2.196 5.63,-5.629 9.819,-17.486 -2.195,-42.002 C 120.678,72.086 106.121,52.692 88.128,34.7 70.136,16.707 50.742,2.149 33.519,-6.29 21.938,-11.965 13.181,-14.025 6.571,-14.025"
               style="fill:#ffffff;fill-opacity:1;fill-rule:nonzero;stroke:none"
               id="path140" /></g></g></g></g></g></svg>
